chapter 5 exercises
…
d$A <- scale( d$MedianAgeMarriage ) 
d$D <- scale( d$Divorce )
d$M = scale(d$Marriage)

lds = read_excel('ch5/lds_membership_by_state.xlsx') %>% 
  rename(Location=State)
lds

## # A tibble: 51 x 12
##    Location Membership Population    LDS Temples Missions Districts Stakes Wards
##    <chr>         <dbl>      <dbl>  <dbl>   <dbl>    <dbl>     <dbl>  <dbl> <dbl>
##  1 Alabama       37765    4903185 0.0077       1        1         0      8    48
##  2 Alaska        33495     731545 0.0458       1        1         0      8    59
##  3 Arizona      436521    7278717 0.06         6        6         0    115   842
##  4 Arkansas      32307    3017804 0.0107       0        2         0      7    46
##  5 Califor     756507   39512223 0.0191       7       15         0    153  1092
##  6 Colorado     150509    5758736 0.0261       2        4         0     35   279
##  7 Connect      15946    3565287 0.0045       1        0         0      3    29
##  8 Delaware       5634     973764 0.0058       0        0         0      2    10
##  9 Distric       3144     705749 0.0045       0        0         0      0     3
## 10 Florida      160266   21477737 0.0075       2        4         0     33   219
## #  with 41 more rows, and 3 more variables: Branches <dbl>,
## #   Congregations <dbl>, Family History Centers <dbl>
…
##             mean         sd        5.5%       94.5%
## a      0.1101557 0.28237204 -0.34112934  0.56144079
## b1     0.2597352 0.12384441  0.06180794  0.45766251
## b2    -0.2150034 0.08008632 -0.34299686 -0.08701003
## sigma  0.9510489 0.06276438  0.85073927  1.05135847

area.seq <- seq( from=min(d$area) , to=max(d$area) , length.out=30 )
d_a = tibble(area=area.seq, groupsize=mean(d$groupsize))
d_a

## # A tibble: 30 x 2
##     area groupsize
##    <dbl>     <dbl>
##  1  1.09      4.34
##  2  1.23      4.34
##  3  1.36      4.34
##  4  1.50      4.34
##  5  1.64      4.34
##  6  1.78      4.34
##  7  1.91      4.34
##  8  2.05      4.34
##  9  2.19      4.34
## 10  2.33      4.34
## #  with 20 more rows
…
We see an effect here because we are looking at a particular slice of groupsize, whereas in 5H1 we were looking at points with a distribution of groupsize that correlates negatively with area.

groupsize.seq <- seq( from=min(d$groupsize) , to=max(d$groupsize) , length.out=30 )
d_gs = tibble(groupsize=groupsize.seq, area=mean(d$area))
d_gs

## # A tibble: 30 x 2
##    groupsize  area
##        <dbl> <dbl>
##  1      2     3.17
##  2      2.21  3.17
##  3      2.41  3.17
##  4      2.62  3.17
##  5      2.83  3.17
##  6      3.03  3.17
##  7      3.24  3.17
##  8      3.45  3.17
##  9      3.66  3.17
## 10      3.86  3.17
## #  with 20 more rows
…
